Working With BLS Time Series Data
…
d <- get_last_n_years(n = 50)

Modifying our dataframe

Lets take a look at our dataframe:

d

## # A tibble: 1,419 x 7
##     year period periodName latest value footnotes seriesID   
##    <dbl> <chr>  <chr>      <chr>  <dbl> <chr>     <chr>      
##  1  2021 M05    May        true     5.8 ""        LNS14000000
##  2  2021 M04    April      <NA>     6.1 ""        LNS14000000
##  3  2021 M03    March      <NA>     6   ""        LNS14000000
##  4  2021 M02    February   <NA>     6.2 ""        LNS14000000
##  5  2021 M01    January    <NA>     6.3 ""        LNS14000000
##  6  2020 M12    December   <NA>     6.7 ""        LNS14000000
##  7  2020 M11    November   <NA>     6.7 ""        LNS14000000
##  8  2020 M10    October    <NA>     6.9 ""        LNS14000000
##  9  2020 M09    September  <NA>     7.8 ""        LNS14000000
## 10  2020 M08    August     <NA>     8.4 ""        LNS14000000
## #  with 1,409 more rows

Maybe BLS folks can easily remember what the different codes refer to, but nonetheless, it might be nice to give them slighly more informative names. Well make a new column and use the case_when() function to give informative names according to the code column. The case_when() function is very handy- you write a conditional statement that uses existing columns, then a tilde, then the value the new column should have if that conditional statement is TRUE.

The lefthand side of a case_when() statement can use multiple columns, like period_name == May & year > 2000. Any conditional statement that returns TRUE or FALSE will work.

d <- d %>% 
  mutate(metric = case_when(
    seriesID == "LNS14000000" ~ "unemp",
    seriesID == "CES0000000001" ~ "total_emp",
    seriesID == "CUSR0000SA0" ~ "cpi_u",
  ))

d

## # A tibble: 1,419 x 8
##     year period periodName latest value footnotes seriesID    metric
##    <dbl> <chr>  <chr>      <chr>  <dbl> <chr>     <chr>       <chr> 
##  1  2021 M05    May        true     5.8 ""        LNS14000000 unemp 
##  2  2021 M04    April      <NA>     6.1 ""        LNS14000000 unemp 
##  3  2021 M03    March      <NA>     6   ""        LNS14000000 unemp 
##  4  2021 M02    February   <NA>     6.2 ""        LNS14000000 unemp 
##  5  2021 M01    January    <NA>     6.3 ""        LNS14000000 unemp 
##  6  2020 M12    December   <NA>     6.7 ""        LNS14000000 unemp 
##  7  2020 M11    November   <NA>     6.7 ""        LNS14000000 unemp 
##  8  2020 M10    October    <NA>     6.9 ""        LNS14000000 unemp 
##  9  2020 M09    September  <NA>     7.8 ""        LNS14000000 unemp 
## 10  2020 M08    August     <NA>     8.4 ""        LNS14000000 unemp 
## #  with 1,409 more rows

Another issue is that we have separate columns for years and months, but wed like to stitch those together into a date column that R can work with.

Intro to lubridate

You can download the official lubridate cheat sheet for more information.

lubridate is a package in the tidyverse that makes handling dates and times slightly less painful. There are a series of functions that allow you to parse components of dates and times into single date or datetime columns. They are named according to the order of components: ymd() will take dates ordered year-month-day, and mdy_hs() will take datetimes ordered month-day-year-hour-second. Well use the my() function to create a date column from our periodName and year columns.

d <- d %>% 
  mutate(date = lubridate::my(paste(periodName, year, sep = "/")))

d

## # A tibble: 1,419 x 9
##     year period periodName latest value footnotes seriesID    metric date      
##    <dbl> <chr>  <chr>      <chr>  <dbl> <chr>     <chr>       <chr>  <date>    
##  1  2021 M05    May        true     5.8 ""        LNS14000000 unemp  2021-05-01
##  2  2021 M04    April      <NA>     6.1 ""        LNS14000000 unemp  2021-04-01
##  3  2021 M03    March      <NA>     6   ""        LNS14000000 unemp  2021-03-01
##  4  2021 M02    February   <NA>     6.2 ""        LNS14000000 unemp  2021-02-01
##  5  2021 M01    January    <NA>     6.3 ""        LNS14000000 unemp  2021-01-01
##  6  2020 M12    December   <NA>     6.7 ""        LNS14000000 unemp  2020-12-01
##  7  2020 M11    November   <NA>     6.7 ""        LNS14000000 unemp  2020-11-01
##  8  2020 M10    October    <NA>     6.9 ""        LNS14000000 unemp  2020-10-01
##  9  2020 M09    September  <NA>     7.8 ""        LNS14000000 unemp  2020-09-01
## 10  2020 M08    August     <NA>     8.4 ""        LNS14000000 unemp  2020-08-01
## #  with 1,409 more rows
…
One thing we might want to look at is a moving-window or rolling average. Well use the slider package, which has a very flexible interface to make calculations with rolling windows, and its syntax is very similar to the tidyverses purrr package.

There have been a number of similar packages and functions such as zoo::rollapply(), tibbletime::rollify(), and tsibble::slide(), but slider is the latest and most flexible approach.

Lets look at the rolling average of unemployment for the last 10 years. First well filter() to get the unemployment values and years from 2011 on. Next well select() only the date and value columns, renaming the value column to unemployment. Then well use arrange() to sort our rows by date.

unemp_last10 <- d %>% 
  filter(metric == "unemp", year >= 2011) %>% 
  select(date, unemployment = value) %>% 
  arrange(date) 

unemp_last10

## # A tibble: 125 x 2
##    date       unemployment
##    <date>            <dbl>
##  1 2011-01-01          9.1
##  2 2011-02-01          9  
##  3 2011-03-01          9  
##  4 2011-04-01          9.1
##  5 2011-05-01          9  
##  6 2011-06-01          9.1
##  7 2011-07-01          9  
##  8 2011-08-01          9  
##  9 2011-09-01          9  
## 10 2011-10-01          8.8
## #  with 115 more rows
…
The tidyverts series of packages is designed to work with time series data in a tidy way, meaning it plays well with the broader tidyverse set of packages. The developers of these packages have a fantastic book on time series forecasting with tidyverts, called Forecasting: Principles and Practice. It goes into great depth and I recommend checking it out, but Ill do a quick demo of how slick these packages are for working with time series.

Making a tsibble object

The yearmonth() function is a bit idiosyncratic to the tidyverts packages, and our ym column isnt a date in the normal R sense, which is why were only using it now.

First, we have to convert our dataframe into a tsibble object, which is basically a dataframe that knows that its a time series. First we have to make a new column that just hold the year-month combination, using the tsibble function yearmonth(). Then we convert the dataframe to a tsibble object with the ym column as the time series index.

unemp_last10 <- unemp_last10 %>% 
  mutate(ym = yearmonth(date)) %>% 
  as_tsibble(index = ym)

unemp_last10

## # A tsibble: 125 x 4 [1M]
##    date       unemployment five_month_avg       ym
##    <date>            <dbl>          <dbl>    <mth>
##  1 2011-01-01          9.1           9.03 2011 Jan
##  2 2011-02-01          9             9.05 2011 Feb
##  3 2011-03-01          9             9.04 2011 Mar
##  4 2011-04-01          9.1           9.04 2011 Apr
##  5 2011-05-01          9             9.04 2011 May
##  6 2011-06-01          9.1           9.04 2011 Jun
##  7 2011-07-01          9             9.02 2011 Jul
##  8 2011-08-01          9             8.98 2011 Aug
##  9 2011-09-01          9             8.88 2011 Sep
## 10 2011-10-01          8.8           8.78 2011 Oct
## #  with 115 more rows
…
